^F:\курсовая 2011\курсовая 2011(VER 1.2 NOTEST)\PROPERTIES\RESOURCES.RESX
^F:\курсовая 2011\курсовая 2011(VER 1.2 NOTEST)\FORM1.RESX
^C:\USERS\Я\DESKTOP\Александр\курсовая 2011(VER 1.2 NOTEST)\PROPERTIES\RESOURCES.RESX
^C:\USERS\Я\DESKTOP\Александр\курсовая 2011(VER 1.2 NOTEST)\FORM1.RESX
^C:\DOCUMENTS AND SETTINGS\ALEXANDER\Мои документы\VISUAL STUDIO 2010\PROJECTS\курсовая 2011\PROPERTIES\RESOURCES.RESX
^C:\DOCUMENTS AND SETTINGS\ALEXANDER\мои документы\VISUAL STUDIO 2010\PROJECTS\курсовая 2011\FORM1.RESX
^C:\DOCUMENTS AND SETTINGS\Александр\Мои документы\SCRIPT\курсач 3 курс\курсовая 2011\курсовая 2011(VER 1.3)\FORM1.RESX
^C:\DOCUMENTS AND SETTINGS\Александр\Мои документы\SCRIPT\курсач 3 курс\курсовая 2011\курсовая 2011(VER 1.3)\PROPERTIES\RESOURCES.RESX
